<svg xmlns="http://www.w3.org/2000/svg" width="19.266" height="19.266" viewBox="0 0 19.266 19.266">
  <g id="noun-clock-4737785" transform="translate(-76.41 -21.867)">
    <path id="Path_12857" data-name="Path 12857" d="M101.511,21.867a9.642,9.642,0,1,0,6.809,2.824,9.633,9.633,0,0,0-6.809-2.824Zm4.523,14.155a.5.5,0,0,1-.346.144.487.487,0,0,1-.346-.144l-4.176-4.176a.489.489,0,0,1-.144-.346V27.024a.49.49,0,0,1,.98,0V31.3l4.033,4.033a.493.493,0,0,1,0,.692Z" transform="translate(-15.468)" fill="#fff"/>
  </g>
</svg>
